^G:\PROJECTS\VISUAL STUDIO\PROGRAMMLAUNCHER\PROGRAMMLAUNCHER\SOURCE.CPP
/c /Zi /nologo /W3 /WX- /Ox /Oi /Oy- /GL /D _MBCS /Gm- /EHsc /MD /GS /Gy /fp:precise /Zc:wchar_t /Zc:forScope /Fo"RELEASE\\" /Fd"RELEASE\VC110.PDB" /Gd /TP /analyze- G:\PROJECTS\VISUAL STUDIO\PROGRAMMLAUNCHER\PROGRAMMLAUNCHER\SOURCE.CPP
^G:\PROJECTS\VISUAL STUDIO\PROGRAMMLAUNCHER\PROGRAMMLAUNCHER\LAUNCHER.CPP
/c /Zi /nologo /W3 /WX- /Ox /Oi /Oy- /GL /D _MBCS /Gm- /EHsc /MD /GS /Gy /fp:precise /Zc:wchar_t /Zc:forScope /Fo"RELEASE\\" /Fd"RELEASE\VC110.PDB" /Gd /TP /analyze- G:\PROJECTS\VISUAL STUDIO\PROGRAMMLAUNCHER\PROGRAMMLAUNCHER\LAUNCHER.CPP
^G:\PROJECTS\VISUAL STUDIO\PROGRAMMLAUNCHER\PROGRAMMLAUNCHER\WINDOWSLAUNCHER.CPP
/c /Zi /nologo /W3 /WX- /Ox /Oi /Oy- /GL /D _MBCS /Gm- /EHsc /MD /GS /Gy /fp:precise /Zc:wchar_t /Zc:forScope /Fo"RELEASE\\" /Fd"RELEASE\VC110.PDB" /Gd /TP /analyze- G:\PROJECTS\VISUAL STUDIO\PROGRAMMLAUNCHER\PROGRAMMLAUNCHER\WINDOWSLAUNCHER.CPP
