^G:\PROJECTS\VISUAL STUDIO\PROGRAMMLAUNCHER\PROGRAMMLAUNCHER\SOURCE.CPP|G:\PROJECTS\VISUAL STUDIO\PROGRAMMLAUNCHER\PROGRAMMLAUNCHER\WINDOWSLAUNCHER.CPP
G:\PROJECTS\VISUAL STUDIO\PROGRAMMLAUNCHER\PROGRAMMLAUNCHER\RELEASE\WINDOWSLAUNCHER.OBJ
G:\PROJECTS\VISUAL STUDIO\PROGRAMMLAUNCHER\PROGRAMMLAUNCHER\RELEASE\SOURCE.OBJ
^G:\PROJECTS\VISUAL STUDIO\PROGRAMMLAUNCHER\PROGRAMMLAUNCHER\LAUNCHER.CPP|G:\PROJECTS\VISUAL STUDIO\PROGRAMMLAUNCHER\PROGRAMMLAUNCHER\SOURCE.CPP|G:\PROJECTS\VISUAL STUDIO\PROGRAMMLAUNCHER\PROGRAMMLAUNCHER\WINDOWSLAUNCHER.CPP
G:\PROJECTS\VISUAL STUDIO\PROGRAMMLAUNCHER\PROGRAMMLAUNCHER\RELEASE\WINDOWSLAUNCHER.OBJ
G:\PROJECTS\VISUAL STUDIO\PROGRAMMLAUNCHER\PROGRAMMLAUNCHER\RELEASE\SOURCE.OBJ
^G:\PROJECTS\VISUAL STUDIO\PROGRAMMLAUNCHER\PROGRAMMLAUNCHER\SOURCE.CPP
G:\PROJECTS\VISUAL STUDIO\PROGRAMMLAUNCHER\PROGRAMMLAUNCHER\RELEASE\SOURCE.OBJ
^G:\PROJECTS\VISUAL STUDIO\PROGRAMMLAUNCHER\PROGRAMMLAUNCHER\LAUNCHER.CPP
G:\PROJECTS\VISUAL STUDIO\PROGRAMMLAUNCHER\PROGRAMMLAUNCHER\RELEASE\LAUNCHER.OBJ
G:\PROJECTS\VISUAL STUDIO\PROGRAMMLAUNCHER\PROGRAMMLAUNCHER\RELEASE\VC110.PDB
^G:\PROJECTS\VISUAL STUDIO\PROGRAMMLAUNCHER\PROGRAMMLAUNCHER\WINDOWSLAUNCHER.CPP
G:\PROJECTS\VISUAL STUDIO\PROGRAMMLAUNCHER\PROGRAMMLAUNCHER\RELEASE\WINDOWSLAUNCHER.OBJ
G:\PROJECTS\VISUAL STUDIO\PROGRAMMLAUNCHER\PROGRAMMLAUNCHER\RELEASE\VC110.PDB
