^G:\PROJECTS\VISUAL STUDIO\PROGRAMMLAUNCHER\PROGRAMMLAUNCHER\RELEASE\LAUNCHER.OBJ|G:\PROJECTS\VISUAL STUDIO\PROGRAMMLAUNCHER\PROGRAMMLAUNCHER\RELEASE\PROGRAMMLAUNCHER.RES|G:\PROJECTS\VISUAL STUDIO\PROGRAMMLAUNCHER\PROGRAMMLAUNCHER\RELEASE\SOURCE.OBJ|G:\PROJECTS\VISUAL STUDIO\PROGRAMMLAUNCHER\PROGRAMMLAUNCHER\RELEASE\WINDOWSLAUNCHER.OBJ
G:\PROJECTS\VISUAL STUDIO\PROGRAMMLAUNCHER\RELEASE\PROGRAMMLAUNCHER.EXE
G:\PROJECTS\VISUAL STUDIO\PROGRAMMLAUNCHER\RELEASE\PROGRAMMLAUNCHER.PDB
