^G:\PROJECTS\VISUAL STUDIO\PROGRAMMLAUNCHER\PROGRAMMLAUNCHER\RELEASE\LAUNCHER.OBJ|G:\PROJECTS\VISUAL STUDIO\PROGRAMMLAUNCHER\PROGRAMMLAUNCHER\RELEASE\PROGRAMMLAUNCHER.RES|G:\PROJECTS\VISUAL STUDIO\PROGRAMMLAUNCHER\PROGRAMMLAUNCHER\RELEASE\SOURCE.OBJ|G:\PROJECTS\VISUAL STUDIO\PROGRAMMLAUNCHER\PROGRAMMLAUNCHER\RELEASE\WINDOWSLAUNCHER.OBJ
C:\PROGRAM FILES (X86)\WINDOWS KITS\8.0\LIB\WIN8\UM\X86\KERNEL32.LIB
C:\PROGRAM FILES (X86)\WINDOWS KITS\8.0\LIB\WIN8\UM\X86\USER32.LIB
C:\PROGRAM FILES (X86)\WINDOWS KITS\8.0\LIB\WIN8\UM\X86\GDI32.LIB
C:\PROGRAM FILES (X86)\WINDOWS KITS\8.0\LIB\WIN8\UM\X86\WINSPOOL.LIB
C:\PROGRAM FILES (X86)\WINDOWS KITS\8.0\LIB\WIN8\UM\X86\COMDLG32.LIB
C:\PROGRAM FILES (X86)\WINDOWS KITS\8.0\LIB\WIN8\UM\X86\ADVAPI32.LIB
C:\PROGRAM FILES (X86)\WINDOWS KITS\8.0\LIB\WIN8\UM\X86\SHELL32.LIB
C:\PROGRAM FILES (X86)\WINDOWS KITS\8.0\LIB\WIN8\UM\X86\OLE32.LIB
C:\PROGRAM FILES (X86)\WINDOWS KITS\8.0\LIB\WIN8\UM\X86\OLEAUT32.LIB
C:\PROGRAM FILES (X86)\WINDOWS KITS\8.0\LIB\WIN8\UM\X86\UUID.LIB
C:\PROGRAM FILES (X86)\WINDOWS KITS\8.0\LIB\WIN8\UM\X86\ODBC32.LIB
C:\PROGRAM FILES (X86)\WINDOWS KITS\8.0\LIB\WIN8\UM\X86\ODBCCP32.LIB
G:\PROJECTS\VISUAL STUDIO\PROGRAMMLAUNCHER\PROGRAMMLAUNCHER\RELEASE\PROGRAMMLAUNCHER.RES
G:\PROJECTS\VISUAL STUDIO\PROGRAMMLAUNCHER\PROGRAMMLAUNCHER\RELEASE\LAUNCHER.OBJ
G:\PROJECTS\VISUAL STUDIO\PROGRAMMLAUNCHER\PROGRAMMLAUNCHER\RELEASE\SOURCE.OBJ
G:\PROJECTS\VISUAL STUDIO\PROGRAMMLAUNCHER\PROGRAMMLAUNCHER\RELEASE\WINDOWSLAUNCHER.OBJ
C:\WINDOWS\GLOBALIZATION\SORTING\SORTDEFAULT.NLS
C:\PROGRAM FILES (X86)\MICROSOFT VISUAL STUDIO 11.0\VC\BIN\C2.DLL
C:\PROGRAM FILES (X86)\MICROSOFT VISUAL STUDIO 11.0\VC\LIB\MSVCPRT.LIB
C:\PROGRAM FILES (X86)\MICROSOFT VISUAL STUDIO 11.0\VC\LIB\MSVCRT.LIB
C:\PROGRAM FILES (X86)\MICROSOFT VISUAL STUDIO 11.0\VC\LIB\OLDNAMES.LIB
C:\PROGRAM FILES (X86)\MICROSOFT VISUAL STUDIO 11.0\VC\BIN\1033\LINKUI.DLL
C:\PROGRAM FILES (X86)\WINDOWS KITS\8.0\BIN\X86\RC.EXE
C:\PROGRAM FILES (X86)\MICROSOFT VISUAL STUDIO 11.0\VC\BIN\CVTRES.EXE
C:\WINDOWS\SYSTEM32\TZRES.DLL
C:\WINDOWS\SYSTEM32\RSAENH.DLL
